0023 Garrett        Wickliff       7.75      50Night Cashier               0 
0024 Alonzo         Peterson       7.30      20Day Cashier                 0 
0029 Ardyce         Breiding       6.50      30Day Cook                    0 
0042 Jacqueline     Hollingsworth  7.15      20Day Cashier                 0 
0000 PHYLLIS        Employee 82    6.00      20Day Cashier                 0 
0000 CONSONA        Employee 36    6.00      20Day Cashier                 0 
0000 EVELYN         Employee 38    7.65      20Day Cashier                 0 
0000 HENLEYGA       Employee 92    7.25      20Day Cashier                 0