Lillington,1197,2/13/2020,8e2342e1fcf14505b1e97ba793bc3c37,,,,,,,,
Henderson,1196,2/13/2020,0bf4c6737d4b4e95837ccef23b40afaa,,,,,,,,
Carthage,1184,2/13/2020,549c99482e4a43208be276c71e43b761,,,,,,,,
Lincolnton,1161,2/13/2020,caa6ca9837e44a739df45f8f2d0ad7de,,,,,,,,
Pikeville,5003,2/13/2020,0a9ae638e3b0476ba02bcbac829fa1cb,,,,,,,,
Hillsborough,1561,2/13/2020,139e7af4ba8a4f10a71f5fcfee42b086,,,,,,,,
Smithfield VA,2571,2/13/2020,ece681069e2e46b19a48ac13b3862a92,,,,,,,,
Roanoke Rapids 2,1341,2/13/2020,d09f5ef3ea434c71b67d679c197a778e,,,,,,,,
Coats,1835,2/13/2020,ef8df53ab9a749e39751ca8388928426,,,,,,,,
Stanleytown,2955,2/13/2020,273e908cd7164763b7c2684e378d2e13,,,,,,,,
Eden,1401,2/13/2020,0d4286decc814a2e8574a44d85d935bd,,,,,,,,
Pinehurst Plaza,1345,2/13/2020,c55f0113f8304dfda70639cb503ed793,,,,,,,,
Roxboro,1121,2/13/2020,41cea9da3240458ab8649b74d75d3d0a,,,,,,,,
Martinsville East,2171,2/13/2020,11a1e7fb2c1849adb9dd24a06d9ebdb5,,,,,,,,
London,5013,2/13/2020,7287ea0fac86429bb9c02c5baf8466d5,,,,,,,,
Lumberton 3,1622,2/13/2020,a7bcce9ce6f64012a954c8ff44c569be,,,,,,,,
Martinsville,2030,2/13/2020,a8791283936c43868b68c251d10e2f97,,,,,,,,
Collinsville,2946,2/13/2020,906e38c45dbd48b7b7109cf92710daeb,,,,,,,,
Wytheville,2906,2/13/2020,0f3d5114571a438ea1b027831030199b,,,,,,,,
Ridgeway,2983,2/13/2020,c3e094a6599f40a899e32a9928dc0943,,,,,,,,
Roanoke Rapids 1,1141,2/13/2020,3d708102144540aa9566e1013f0fc578,,,,,,,,
Bridgeton,1094,2/13/2020,32785e0c8512425b8e7d9088995d3992,,,,,,,,
Camden,1656,2/13/2020,62b80edc52f847d788a5d376abdbde4a,,,,,,,,
Angier,1657,2/13/2020,8aabe86720cf4290a1cdf6a8e181c5be,,,,,,,,
Oxford,1659,2/13/2020,116f4cee261e47d3baf652a2ef3255e5,,,,,,,,
