1031,1503372
1041,1503468
1081,1502751
1090,1502786
1094,1505637
1111,1503046
1121,1503303
1141,1503881
1161,1502512
1182,1501966
1183,1500481
1184,1500718
1185,1505506
1189,1500238
1190,1500763
1193,1500570
1194,1500871
1195,1501058
1196,1500465
1197,1500317
1198,1500427
1199,1502688
1200,1500990
1202,1502991
1204,1500853
1205,1500854
1206,1500855
1207,1500856
1209,1500230
1210,1500235
1212,1500249
1213,1500441
1214,1501032
1215,1505533
1216,1500417
1217,1500406
1218,1501983
1219,1504000
1221,1504034
1231,1502737
1251,1503873
1281,1503215
1291,1502640
1302,1505515
1318,1503909
1319,1503551
1321,1502752
1324,1503583
1325,1503028
1328,1502958
1329,1503975
1330,1502710
1331,1503119
1333,1502920
1337,1502957
1339,1503708
1340,1503972
1341,1502969
1342,1503536
1343,1502697
1345,1503153
1351,1503611
1352,1505708
1360,1505541
1371,1503878
1381,1503014
1401,1503152
1411,1502708
1421,1503477
1431,1503517
1451,1503681
1461,1503791
1481,1502915
1491,1502628
1501,1502658
1511,1502552
1521,1503099
1541,1502717
1561,1502761
1571,1502654
1601,1502663
1613,1503854
1614,1502799
1615,1502744
1616,1503367
1617,1503660
1618,1502973
1621,1503670
1622,1503563
1623,1503782
1624,1503270
1627,1502553
1629,1503348
1630,1503820
1632,1502756
1634,1503533
1635,1503462
1636,1503277
1637,1502963
1638,1503026
1639,1503302
1640,1503265
1641,1503657
1642,1503827
1643,1503555
1644,1503618
1645,1502974
1646,1503098
1647,1504362
1648,1500069
1649,1501073
1650,1505485
1651,1505745
1820,1503003
1821,1502774
1822,1503198
1823,1505610
1824,1503049
1825,1503058
1826,1503035
1827,1503025
1828,1503227
1830,1503059
1832,1503160
1834,1503010
1835,1503137
1836,1503313
1837,1503220
1838,1503301
1839,1503115
1841,1503264
1842,1503351
1843,1503291
1844,1503576
1845,1503343
1848,1503105
2021,1502548
2030,1503597
2041,1503714
2052,1503476
2101,1503966
2121,1502723
2141,1503131
2161,1503436
2171,1503487
2201,1503830
2221,1502513
2251,1503268
2261,1503481
2271,1503813
2281,1503207
2291,1502636
2301,1503252
2331,1502997
2341,1502984
2371,1503253
2391,1503437
2401,1503442
2411,1503891
2431,1502734
2441,1502733
2451,1503316
2471,1503441
2481,1503359
2501,1502684
2521,1503228
2531,1502648
2541,1502602
2551,1503327
2561,1502649
2571,1502779
2591,1503121
2611,1503683
2621,1503200
2631,1503849
2641,1502665
2671,1503091
2681,1505616
2691,1503838
2701,1503658
2711,1503759
2721,1504047
2731,1503962
2735,1505544
2741,1503995
2751,1502912
2761,1502603
2771,1503004
2781,1503108
2791,1503865
2801,1503217
2803,1503008
2804,1503229
2806,1503309
2809,1503568
2810,1503756
2812,1503923
2813,1502573
2815,1503271
2816,1503433
2817,1502792
2818,1502748
2819,1502707
2820,1503588
2821,1503082
2822,1503677
2823,1503993
2824,1503807
2825,1503925
2826,1503459
2829,1503557
2830,1503615
2831,1505584
2832,1503803
2834,1503474
2835,1503424
2836,1503103
2837,1503077
2838,1503769
2839,1503770
2840,1503985
2842,1503945
2843,1503339
2844,1504019
2845,1502918
2846,1503640
2849,1503845
2850,1503976
2861,1503041
2871,1503392
2891,1503438
2902,1502591
2903,1503912
2904,1503777
2905,1503587
2906,1503736
2907,1503593
2908,1503489
2909,1503980
2910,1502696
2911,1502545
2913,1502910
2914,1503457
2915,1503656
2916,1503526
2917,1503659
2918,1503550
2919,1503866
2920,1503250
2921,1503981
2925,1502953
2927,1502954
2928,1503478
2929,1503286
2931,1502964
2933,1503255
2934,1503501
2935,1503692
2937,1503661
2938,1503669
2939,1503850
2940,1504017
2941,1503145
2942,1503101
2943,1503122
2944,1503599
2945,1503767
2946,1503719
2948,1502579
2949,1502664
2950,1505698
2952,1502990
2953,1502632
2954,1503048
2955,1503150
2956,1503129
2957,1503069
2958,1503331
2959,1503354
2960,1503641
2961,1503761
2962,1503541
2968,1503322
2971,1503836
2972,1503466
2973,1504004
2974,1502667
2975,1503534
2977,1503589
2978,1503673
2979,1502555
2980,1502983
2981,1503530
2982,1503800
2983,1503853
2984,1503898
2985,1503918
2986,1502551
2987,1502909
2989,1503384
2990,1503822
2991,1503888
2992,1502736
2993,1502784
2995,1504021
2996,1503880
2997,1505410
2998,1505415
2999,1505612
3011,1503549
3021,1503612
3041,1503488
3051,1503811
3061,1504005
3071,1502652
3081,1503052
3091,1503338
3092,1503738
3093,1503619
3094,1503846
3095,1503691
3096,1502588
5001,1503636
5002,1503825
5003,1502686
5004,1504013
5006,1503308
5007,1503432
5008,1502515
5009,1503430
5010,1503799
5013,1503504
5014,1503773
5015,1503821
5016,1502585
