 0   21        41        0.00
 0   0         0         0.00
 0   13        21        2.00
 0   0         0         0.00
 0   21        37        4.00
 0   0         0         0.00
 0   17        25        2.00
 0   0         0         0.00
 0   17        41        6.00
 0   0         0         0.00
 0   0         0         0.00
 0   0         0         0.00
 0   0         0         0.00
 0   0         0         0.00
 0   0         0         0.00
 0   0         0         0.00
 0   0         0         0.00
 0   0         0         0.00
 0   0         0         0.00
 0   0         0         0.00
 0   0         0         0.00
 0   0         0         0.00
 0   0         0         0.00
 0   0         0         0.00
 0   0         0         0.00
 0   0         0         0.00
 0   0         0         0.00
 0   0         0         0.00
 0   0         0         0.00
 0   0         0         0.00
 0   0         0         0.00
 0   0         0         0.00
 0   0         0         0.00
 0   0         0         0.00
 0   0         0         0.00
 0   0         0         0.00
 0   0         0         0.00
 0   0         0         0.00
 0   0         0         0.00
 0   0         0         0.00
 0   0         0         0.00
 0   0         0         0.00
 0   25        69        11.00
 0   0         0         0.00
 0   26        70        11.00
 0   0         0         0.00
 0   0         0         0.00
 0   0         0         0.00
 0   0         0         0.00
 0   0         0         0.00
 0   0         0         0.00
 0   0         0         0.00
 0   0         0         0.00
 0   0         0         0.00
 0   0         0         0.00
 0   0         0         0.00
 0   0         0         0.00
 0   0         0         0.00
 0   0         0         0.00
 0   0         0         0.00
 0   0         0         0.00
 0   0         0         0.00
 0   0         0         0.00
 0   0         0         0.00
 0   13        41        0.00
 0   0         0         0.00
 0   21        33        3.00
 0   0         0         0.00
 0   25        61        9.00
 0   0         0         0.00
 0   0         0         0.00
 0   0         0         0.00
 0   0         0         0.00
 0   0         0         0.00
 0   0         0         0.00
 0   0         0         0.00
 0   0         0         0.00
 0   0         0         0.00
 0   0         0         0.00
 0   0         0         0.00
 0   0         0         0.00
 0   0         0         0.00
 0   0         0         0.00
 0   0         0         0.00
 0   21        37        4.00
 0   0         0         0.00
 0   29        37        2.00
 0   0         0         0.00
 0   0         0         0.00
 0   0         0         0.00
 0   0         0         0.00
 0   0         0         0.00
 0   0         0         0.00
 0   0         0         0.00
 0   0         0         0.00
 0   0         0         0.00
 0   17        81        5.00
 0   0         0         0.00
 0   65        83        4.50
 0   0         0         0.00
 0   65        81        4.00
 0   0         0         0.00
 0   65        81        4.00
 0   0         0         0.00
 0   66        82        4.00
 0   0         0         0.00
 0   65        81        4.00
 0   0         0         0.00
 0   0         0         0.00
 0   0         0         0.00
 0   0         0         0.00
 0   0         0         0.00
 0   21        57        0.00
 0   0         0         0.00
 0   21        57        9.00
 0   0         0         0.00
 0   17        53        9.00
 0   0         0         0.00
 0   18        54        9.00
 0   0         0         0.00
 0   19        55        9.00
 0   0         0         0.00
 0   0         0         0.00
 0   0         0         0.00
 0   0         0         0.00
 0   0         0         0.00
 0   0         0         0.00
 0   0         0         0.00
 0   25        62        0.25
 0   0         0         0.00
 0   25        63        9.50
 0   0         0         0.00
 0   25        61        9.00
 0   0         0         0.00
 0   26        62        9.00
 0   0         0         0.00
 0   27        63        9.00
 0   0         0         0.00
 0   25        48        5.75
 0   0         0         0.00
 0   49        96        11.75
 0   0         0         0.00
 0   25        61        9.00
 0   0         0         0.00
 0   45        57        0.00
 0   0         0         0.00
 0   46        58        3.00
 0   0         0         0.00
 0   45        57        3.00
 0   0         0         0.00
 0   46        58        3.00
 0   0         0         0.00
 0   21        41        5.00
 0   0         0         0.00
 0   0         0         0.00
 0   0         0         0.00
 0   0         0         0.00
 0   0         0         0.00
 0   45        57        3.00
 0   0         0         0.00
 0   61        93        8.00
 0   0         0         0.00
 0   61        93        8.00
 0   0         0         0.00
 0   61        93        8.00
 0   0         0         0.00
 0   61        93        8.00
 0   0         0         0.00
 0   0         0         0.00
 0   0         0         0.00
 0   61        93        8.00
 0   0         0         0.00
 0   0         0         0.00
 0   0         0         0.00
 0   0         0         0.00
 0   0         0         0.00
 0   0         0         0.00
 0   0         0         0.00
 0   0         0         0.00
 0   0         0         0.00
 0   0         0         0.00
 0   0         0         0.00
 0   0         0         0.00
 0   0         0         0.00
 0   0         0         0.00
 0   0         0         0.00
 0   0         0         0.00
 0   0         0         0.00
 0   0         0         0.00
 0   0         0         0.00
 0   0         0         0.00
 0   0         0         0.00
 0   0         0         0.00
 0   0         0         0.00
 0   17        57        10.00
 0   0         0         0.00
 0   0         0         0.00
 0   0         0         0.00
 0   17        57        10.00
 0   0         0         0.00
 0   17        57        10.00
 0   0         0         0.00
 0   17        61        11.00
 0   0         0         0.00
 0   0         0         0.00
 0   0         0         0.00
 0   17        57        10.00
 0   0         0         0.00
 0   45        57        0.00
 0   0         0         0.00
 0   46        58        3.00
 0   0         0         0.00
 0   45        57        3.00
 0   0         0         0.00
 0   46        58        3.00
 0   0         0         0.00
 0   0         0         0.00
 0   0         0         0.00
 0   0         0         0.00
 0   0         0         0.00
 0   0         0         0.00
 0   0         0         0.00
 0   45        57        3.00
 0   0         0         0.00
 0   61        93        8.00
 0   0         0         0.00
 0   61        93        8.00
 0   0         0         0.00
 0   61        93        8.00
 0   0         0         0.00
 0   61        93        8.00
 0   0         0         0.00
 0   0         0         0.00
 0   0         0         0.00
 0   61        93        8.00
 0   0         0         0.00
 0   0         0         0.00
 0   0         0         0.00
 0   0         0         0.00
 0   0         0         0.00
 0   0         0         0.00
 0   0         0         0.00
 0   0         0         0.00
 0   0         0         0.00
 0   0         0         0.00
 0   0         0         0.00
 0   0         0         0.00
 0   0         0         0.00
 0   0         0         0.00
 0   0         0         0.00
 0   0         0         0.00
 0   0         0         0.00
 0   0         0         0.00
 0   0         0         0.00
 0   0         0         0.00
 0   0         0         0.00
 0   0         0         0.00
 0   0         0         0.00
 0   17        57        10.00
 0   0         0         0.00
 0   0         0         0.00
 0   0         0         0.00
 0   17        57        10.00
 0   0         0         0.00
 0   17        57        10.00
 0   0         0         0.00
 0   17        61        11.00
 0   0         0         0.00
 0   0         0         0.00
 0   0         0         0.00
 0   17        57        10.00
 0   0         0         0.00
 0   0         0         0.00
 0   0         0         0.00
 0   0         0         0.00
 0   0         0         0.00
 0   0         0         0.00
 0   0         0         0.00
 0   0         0         0.00
 0   0         0         0.00
 0   0         0         0.00
 0   0         0         0.00
 0   0         0         0.00
 0   0         0         0.00
 0   0         0         0.00
 0   0         0         0.00
 0   0         0         0.00
 0   0         0         0.00
 0   0         0         0.00
 0   0         0         0.00
 0   0         0         0.00
 0   0         0         0.00
 0   0         0         0.00
 0   0         0         0.00
 0   0         0         0.00
 0   0         0         0.00
 0   0         0         0.00
 0   0         0         0.00
 0   0         0         0.00
 0   0         0         0.00
 0   0         0         0.00
 0   0         0         0.00
 0   0         0         0.00
 0   0         0         0.00
 0   0         0         0.00
 0   0         0         0.00
 0   0         0         0.00
 0   0         0         0.00
 0   0         0         0.00
 0   0         0         0.00
 0   0         0         0.00
 0   0         0         0.00
 0   0         0         0.00
 0   0         0         0.00
 0   0         0         0.00
 0   0         0         0.00
 0   0         0         0.00
 0   0         0         0.00
 0   0         0         0.00
 0   0         0         0.00
 0   0         0         0.00
 0   0         0         0.00
 0   0         0         0.00
 0   0         0         0.00
 0   0         0         0.00
 0   0         0         0.00
 0   0         0         0.00
 0   0         0         0.00
 0   0         0         0.00
 0   0         0         0.00
 0   0         0         0.00
 0   0         0         0.00
 0   0         0         0.00
 0   0         0         0.00
 0   0         0         0.00
 0   0         0         0.00
 0   0         0         0.00
 0   0         0         0.00
 0   0         0         0.00
 0   0         0         0.00
 0   0         0         0.00
 0   0         0         0.00
 0   0         0         0.00
 0   0         0         0.00
 0   0         0         0.00
 0   0         0         0.00
 0   0         0         0.00
 0   0         0         0.00
 0   0         0         0.00
 0   0         0         0.00
 0   0         0         0.00
 0   0         0         0.00
 0   0         0         0.00
 0   0         0         0.00
 0   0         0         0.00
 0   0         0         0.00
 0   0         0         0.00
 0   0         0         0.00
 0   0         0         0.00
 0   0         0         0.00
 0   0         0         0.00
 0   0         0         0.00
 0   0         0         0.00
 0   0         0         0.00
 0   0         0         0.00
 0   0         0         0.00
 0   0         0         0.00
 0   0         0         0.00
 0   0         0         0.00
 0   0         0         0.00
 0   0         0         0.00
 0   0         0         0.00
 0   0         0         0.00
 0   0         0         0.00
 0   0         0         0.00
 0   0         0         0.00
 0   0         0         0.00
 0   0         0         0.00
 0   0         0         0.00
 0   0         0         0.00
 0   0         0         0.00
 0   0         0         0.00
 0   0         0         0.00
 0   0         0         0.00
 0   0         0         0.00
 0   0         0         0.00
 0   0         0         0.00
 0   0         0         0.00
 0   0         0         0.00
 0   0         0         0.00
 0   0         0         0.00
 0   0         0         0.00
 0   0         0         0.00
 0   0         0         0.00
 0   0         0         0.00
 0   0         0         0.00
 0   0         0         0.00
 0   0         0         0.00
 0   0         0         0.00
 0   0         0         0.00
 0   0         0         0.00
 0   0         0         0.00
 0   0         0         0.00
 0   0         0         0.00
 0   0         0         0.00
 0   0         0         0.00
 0   0         0         0.00
 0   0         0         0.00
 0   0         0         0.00
 0   0         0         0.00
 0   0         0         0.00
 0   0         0         0.00
 0   0         0         0.00
 0   0         0         0.00
 0   0         0         0.00
 0   0         0         0.00
 0   0         0         0.00
 0   0         0         0.00
 0   0         0         0.00
 0   0         0         0.00
 0   0         0         0.00
 0   0         0         0.00
 0   0         0         0.00
 0   0         0         0.00
 0   0         0         0.00
 0   0         0         0.00
 0   0         0         0.00
 0   0         0         0.00
 0   0         0         0.00
 0   0         0         0.00
 0   0         0         0.00
 0   0         0         0.00
 0   0         0         0.00
 0   0         0         0.00
 0   0         0         0.00
 0   0         0         0.00
 0   0         0         0.00
 0   0         0         0.00
 0   0         0         0.00
 0   0         0         0.00
 0   0         0         0.00
 0   0         0         0.00
 0   0         0         0.00
 0   0         0         0.00
 0   0         0         0.00
 0   0         0         0.00
 0   0         0         0.00
 0   0         0         0.00
 0   0         0         0.00
 0   0         0         0.00
 0   0         0         0.00
 0   0         0         0.00
 0   0         0         0.00
 0   0         0         0.00
 0   0         0         0.00
 0   0         0         0.00
 0   0         0         0.00
 0   0         0         0.00
 0   0         0         0.00
 0   0         0         0.00
 0   0         0         0.00
 0   0         0         0.00
 0   0         0         0.00
 0   0         0         0.00
 0   0         0         0.00
 0   0         0         0.00
 0   0         0         0.00
 0   0         0         0.00
 0   0         0         0.00
 0   0         0         0.00
 0   0         0         0.00
 0   0         0         0.00
 0   0         0         0.00
 0   0         0         0.00
 0   0         0         0.00
 0   0         0         0.00
 0   0         0         0.00
 0   0         0         0.00
 0   0         0         0.00
 0   0         0         0.00
 0   0         0         0.00
 0   0         0         0.00
 0   0         0         0.00
 0   0         0         0.00
 0   0         0         0.00
 0   0         0         0.00
 0   0         0         0.00
 0   0         0         0.00
 0   0         0         0.00
 0   0         0         0.00
 0   0         0         0.00
 0   0         0         0.00
 0   0         0         0.00
 0   0         0         0.00
 0   0         0         0.00
 0   0         0         0.00
 0   0         0         0.00
 0   0         0         0.00
 0   0         0         0.00
 0   0         0         0.00
 0   0         0         0.00
 0   0         0         0.00
 0   0         0         0.00
 0   0         0         0.00
 0   0         0         0.00
 0   0         0         0.00
 0   0         0         0.00
 0   0         0         0.00
 0   0         0         0.00
 0   0         0         0.00
 0   0         0         0.00
 0   0         0         0.00
