1031    DEBBIE DICKENS                 KIM JONES                      DARRELL HOFER                  J.P. BERGIN                _
1041    WENDY ROSE                     LYNETTE HYDE                   CHRIS LIVENGOOD                RANDALL CORBIN             _
1051    WENDY ROSE                     LYNETTE HYDE                   ANGELA BARNETTE                RANDALL CORBIN             _
1081 24 BRENDA WARREN                  JANICE ALFORD                  ANDRE JUMPP                    MARK BARBEE                _
1090    WENDY ROSE                     LYNETTE HYDE                   SARAH HURD                     RANDALL CORBIN             _
1092    DEBBIE DICKENS                 KIM JONES                      TAMBRA LITTLE                  J.P. BERGIN                _
1093    DEBBIE DICKENS                 KIM JONES                      JANET HUGGINS                  J.P. BERGIN                _
1101    WENDY ROSE                     LYNETTE HYDE                   GARY PAUL                      MARK BARBEE                _
1111    WENDY ROSE                     LYNETTE HYDE                                                  RANDALL CORBIN             _
1121    CINDI MAY                      PATSY HUNTER                   TAMMY SPENCER                  PERRY CRAIG                _
1141    MARY LEE DENTON                JUDY MEDLIN                    NANCY DAVIS                    ROBERT LARIMER             _
1161    BRENDA WARREN                  PATSY HUNTER                   MICHAEL OXENDINE               RANDALL CORBIN             _
1171    LISA GAY                       PATSY HUNTER                   TINA BOHANON                   RANDALL CORBIN             _
1181    WENDY ROSE                     LYNETTE HYDE                                                  RANDALL CORBIN             _
1211    BRENDA WARREN                  JANICE ALFORD                  RICHARD OLSEN                  MARK BARBEE                _
1221 24 JOANNE CARPENTER               LYNETTE HYDE                   EUGENIA COLLINS                RANDALL CORBIN             _
1231 24 DEBBIE DICKENS                 JANICE ALFORD                  ANN GODWIN                     MARK BARBEE                _
1251    WENDY ROSE                     LYNETTE HYDE                   PHILLIP MCDOUGALD              PERRY CRAIG                _
1281 24 BRENDA WARREN                  JANICE ALFORD                  ANN CARLTON                    MARK BARBEE                _
1291 24 DEBRA BENSON                   JANICE ALFORD                  RONALD CARTER                  MARK BARBEE                _
1301 24 DEBRA BENSON                   KIM JONES                      DALE CALDWELL                  J.P. BERGIN                _
1312    DEBRA BENSON                   KIM JONES                      PARTICIA PIGFORD               J.P. BERGIN                _
1313    DEBBIE DICKENS                 LYNETTE HYDE                   BARRY KELLIS                   MARK BARBEE                _
1318 24 DEBBIE DICKENS                 JANICE ALFORD                  DEMETRIOUS TELLING             MARK BARBEE                _
1319    DEBRA BENSON                   KIM JONES                      KIMBERLY FINUCAN               J.P. BERGIN                _
1321    DEBRA BENSON                   KIM JONES                      JIM SPIRKO                     J.P. BERGIN                _
1324    DEBBIE DICKENS                 KIM JONES                      DELORES AVERETTE               J.P. BERGIN                _
1325    DEBRA BENSON                   KIM JONES                      LINDA THOMPSON                 J.P. BERGIN                _
1328    DEBRA BENSON                   KIM JONES                      EARL RAPER                     J.P. BERGIN                _
1329    DEBBIE DICKENS                 KIM JONES                      SHERLENE SPENCER               J.P. BERGIN                _
1330    DEBRA BENSON                   KIM JONES                      PAT PIGFORD                    J.P. BERGIN                _
1331    DEBRA BENSON                   KIM JONES                      SHAWN YOUMANS                  J.P. BERGIN                _
1333    DEBRA BENSON                   KIM JONES                      JOAN BAME                      J.P. BERGIN                _
1334    DEBRA BENSON                   KIM JONES                      RAY VIOLETTE                   J.P. BERGIN                _
1334    DEBRA BENSON                   KIM JONES                      RAY VIOLETTE                   J.P. BERGIN                _
1337 24 DEBBIE DICKENS                 KIM JONES                      JERRY MILLER                   J.P. BERGIN                _
1338    DEBBIE DICKENS                 KIM JONES                      TERESA SHROPSHIRE              J.P. BERGIN                _
1339    DEBRA BENSON                   KIM JONES                      RONALD GOUGH                   J.P. BERGIN                _
1340    BRENDA VIVERETTE               JANICE ALFORD                  BRENDA FERGUSON                MARK BARBEE                _
1341    MARY LEE DENTON                JUDY MEDLIN                    ROBIN LYNCH                    ROBERT LARIMER             _
1342    DEBRA BENSON                   KIM JONES                      DARIL CALDWELL                 J.P. BERGIN                _
1343    DEBRA BENSON                   KIM JONES                      DEBBIE BAKER                   J.P. BERGIN                _
1351    WENDY ROSE                     LYNETTE HYDE                   SALLY JONES                    PERRY CRAIG                _
1371    LISA GAY                       PATSY HUNTER                   DONNA SIMMONS                  RANDALL CORBIN             _
1381    KIM WALL                       KIM JONES                      ANGIE EDWARDS                  RANDALL CORBIN             _
1391    KIM WALL                       KIM JONES                      MARIA GONZALES                 RANDALL CORBIN             _
1401    MARGIE TURNER                  LYNETTE HYDE                                                  PERRY CRAIG                _
1411    JOANNE CARPENTER               LYNETTE HYDE                   VICKIE COCHRAN                 RANDALL CORBIN             _
1421    WENDY ROSE                     LYNETTE HYDE                   LARRY WICKLINE                 MARK BARBEE                _
1431    MARY LEE DENTON                JUDY MEDLIN                    MICHELLE GARRISON              PERRY CRAIG                _
1441    LISA GAY                       LYNETTE HYDE                   BRUCE ANDERSON                 MARK BARBEE                _
1451    BRENDA WARREN                  JANICE ALFORD                  JONI LEONARD                   MARK BARBEE                _
1461 24 BRENDA WARREN                  JANICE ALFORD                  DALLAS HASKINS                 MARK BARBEE                _
1481 24 MARGIE TURNER                  LYNETTE HYDE                   CURTIS LEWIS                   RANDALL CORBIN             _
1491    BRENDA WARREN                  JANICE ALFORD                  TONY STRICKLAND                MARK BARBEE                _
1501 24 BRENDA WARREN                  JANICE ALFORD                  ROBERT GREER                   MARK BARBEE                _
1511    BRENDA WARREN                  PATSY HUNTER                   MARGIE LINEBERGER              RANDALL CORBIN             _
1521    CINDY MAY                      PATSY HUNTER                   BILL THORNTON                  RANDALL CORBIN             _
1531    BRENDA WARREN                  PATSY HUNTER                   PAM MAY                        RANDALL CORBIN             _
1541    VICKIE EZZELL                  JANICE ALFORD                  PAMELA RENFROW                 MARK BARBEE                _
1551    BRENDA WARREN                  PATSY HUNTER                   LARRY BUSH                     RANDALL CORBIN             _
1561    CINDY MAY                      PATSY HUNTER                   SUSIE STREPAY                  PERRY CRAIG                _
1571    BRENDA WARREN                  JANICE ALFORD                  RICHARD LEAK                   MARK BARBEE                _
1581    WENDY ROSE                     PATSY HUNTER                   ALEX JONES                     PERRY CRAIG                _
1601    DEBBIE DICKENS                 KIM JONES                      ANGELA WERKMAN                 J.P. BERGIN                _
1612    WENDY ROSE                     LYNETTE HYDE                   LOUIS WHITTED                  PERRY CRAIG                _
1613    WENDY ROSE                     LYNETTE HYDE                   SCOTT ELLIOTT                  PERRY CRAIG                _
1614    DEBBIE DICKENS                 JANICE ALFORD                  ANNETTE JACKSON                MARK BARBEE                _
1615    BRENDA WARREN                  JANICE ALFORD                  JAMES MCFERRIN                 MARK BARBEE                _
1616    LISA GAY                       PATSY HUNTER                   TERESA SMITH                   RANDALL CORBIN             _
1617 24 BRENDA WARREN                  JANICE ALFORD                  SUSAN CROW                     MARK BARBEE                _
1618 24 BRENDA WARREN                  JANICE ALFORD                  ANNA TERRY                     MARK BARBEE                _
1619 24 BRENDA WARREN                  JANICE ALFORD                  EDWIN PAVALSKI                 MARK BARBEE                _
1620    JOANNE CARPENTER               LYNETTE HYDE                   TAMMY PURSER                   RANDALL CORBIN             _
1621    CINDY MAY                      PATSY HUNTER                   GREG ROGERS                    RANDALL CORBIN             _
1622 24 DEBRA BENSON                   JANICE ALFORD                  VERNDELL FREEMAN               MARK BARBEE                _
1623    LISA GAY                       LYNETTE HYDE                                                  MARK BARBEE                _
1624    WENDY ROSE                     LYNETTE HYDE                   KIMBERLY COSTELLO              PERRY CRAIG                _
1625    BRENDA WARREN                  PATSY HUNTER                   CARRIE MILLER                  RANDALL CORBIN             _
1626    WENDY ROSE                     LYNETTE HYDE                   DIANE MICHAEL                  RANDALL CORBIN             _
1627    DEBORAH SULLIVAN               LYNETTE HYDE                   HELENA DELHANTY                RANDALL CORBIN             _
1628    CINDY MAY                      PATSY HUNTER                   THOMAS WILSON                  RANDALL CORBIN             _
1629    DEBORAH SULLIVAN               LYNETTE HYDE                   DERRICK DAVIS                  RANDALL CORBIN             _
1630    BRENDA WARREN                  JANICE ALFORD                  REANNA MARTINEZ                MARK BARBEE                _
1632    LISA GAY                       PATSY HUNTER                   LEON SIMMONS/TOM DAVIS         RANDALL CORBIN             _
1633    BRENDA DAVIS                   PATSY HUNTER                   JACK KEY                       RANDALL CORBIN             _
1634    WENDY ROSE                     LYNETTE HYDE                   GREG STREPAY                   MARK BARBEE                _
1635    BRENDA WARREN                  JANICE ALFORD                  HATTIE FULLERTON               MARK BARBEE                _
1636    BRENDA WARREN                  JANICE ALFORD                  RETHA MOORE                    MARK BARBEE                _
1637    DEBBIE DICKENS                 KIM JONES                      ERIC MARTINEZ                  J.P. BERGIN                _
1638    LISA GAY                       LYNETTE HYDE                   DELAINE HARRELL                MARK BARBEE                _
1639    KIM WALL                       KIM JONES                      KIM SUMNER                     RANDALL CORBIN             _
1640    MARY LEE DENTON                JUDY MEDLIN                    CHARLES FROMAL                 ROBERT LARIMER             _
1641    DEBRA BENSON                   JANICE ALFORD                  KAREN ETCHER                   MARK BARBEE                _
1642    DEBBIE DICKENS                 KIM JONES                      MARIE TINSLEY                  J.P. BERGIN                _
1643    DEBBIE DICKENS                 KIM JONES                      SANDY HOLT                     J.P. BERGIN                _
1644    DEBBIE DICKENS                 KIM JONES                      BUDDY DAVIS                    J.P. BERGIN                _
1645    LISA GAY                       PATSY HUNTER                   JACK KEY                       RANDALL CORBIN             _
1820    PANSEY RACKLEY                 LYNETTE HYDE                   BETTY MURCHISON                ROBERT LARIMER             _
1821    PANSEY RACKLEY                 LYNETTE HYDE                   JACQUELINE LASSITER            ROBERT LARIMER             _
1822    MARY LEE DENTON                JUDY MEDLIN                    ETHEL BROWN                    PERRY CRAIG                _
1823    DEBRA BENSON                   KIM JONES                      CLIFTON SMITH                  J.P. BERGIN                _
1824    PANSEY RACKLEY                 LYNETTE HYDE                   VIVILIA KING                   ROBERT LARIMER             _
1825    DEBBIE DICKENS                 KIM JONES                      TERESA PINER                   J.P. BERGIN                _
1826    PANSEY RACKLEY                 LYNETTE HYDE                   CAROL WILLOUGHBY               ROBERT LARIMER             _
1827    PANSEY RACKLEY                 LYNETTE HYDE                   LAURA GODWIN                   ROBERT LARIMER             _
1828    DEBORAH SULLIVAN               PATSY HUNTER                   ESMAIL KARKOOKY                PERRY CRAIG                _
1830    DEBBIE DICKENS                 KIM JONES                      DEBORAH DEAN                   J.P. BERGIN                _
1832    PANSEY RACKLEY                 LYNETTE HYDE                   BOB BARBOUR                    MARK BARBEE                _
1834    BRENDA WALL                    JANICE ALFORD                  SYLVIA WELCHANCE               BRAD MARTIN                _
1835    LISA GAY                       LYNETTE HYDE                   BARBARA ANN EAGLES             MARK BARBEE                _
1836    KIM WALL                       KIM JONES                      DONNA CHILTON                  RANDALL CORBIN             _
1837    CINDY MAY                      LYNETTE HYDE                   DUANE MARSHALL                 MELVIN WOLFE JR.           _
1838    MARGIE TURNER                  LYNETTE HYDE                   DANA GRYDER                    PERRY CRAIG                _
1839    PANSEY RACKLEY                 LYNETTE HYDE                   JOHN KEELEY                    MARK BARBEE                _
1841    BRENDA DAVIS                   PATSY HUNTER                   ANGELEA BOSWELL                RANDALL CORBIN             _
1842    LISA GAY                       PATSY HUNTER                   DEBBIE POPE                    RANDALL CORBIN             _
1843    MARGIE TURNER                  LYNETTE HYDE                   MELBA HUGHES                   PERRY CRAIG                _
1844    LISA GAY                       PATSY HUNTER                   BEDFORD TEAGUE                 RANDALL CORBIN             _
1845    LISA GAY                       PATSY HUNTER                   JAMES CAUDLE                   RANDALL CORBIN             _
1846    LISA GAY                       PATSY HUNTER                                                  RANDALL CORBIN             _
1847    LISA GAY                       PATSY HUNTER                   LORRIE HANKINS                 RANDALL CORBIN             _
1848    DEBRA BENSON                   KIM JONES                      MICHELLE FLORES                J.P. BERGIN                _
2021    PANSEY RACKELY                 PATSY HUNTER                   DEBORA HYDEN                   JOHN E DEAL                _
2030    DEBORAH SULLIVAN               JUDY MEDLIN                    DALE MILLS                     PERRY CRAIG                _
2041    DEBORAH SULLIVAN               PATSY HUNTER                   KIM CRENSHAW                   PERRY CRAIG                _
2081    BRENDA WALL                    JANICE ALFORD                  NANCY LANDRY                   BRAD MARTIN                _
2101 24 DEBORAH SULLIVAN               PATSY HUNTER                   MARY JEFFERSON                 PERRY CRAIG                _
2121 24 DEBORAH SULLIVAN               PATSY HUNTER                   SHARON SCEARCE                 PERRY CRAIG                _
2141    JO ANNE CARPENTER              PATSY HUNTER                   SYLVIA BOVE                    JOHN E DEAL                _
2161    CINDY MAY                      LYNETTE HYDE                   CASSANDRA WARD                 MELVIN WOLFE JR.           _
2171    DEBORAH SULLIVAN               JUDY MEDLIN                    BLANCHE HAIRSTON               PERRY CRAIG                _
2190    MARY LEE DENTON                JUDY MEDLIN                    DONNA EDMONDS                  BRAD MARTIN                _
2201    PEGGY GRIFFIN                  JANICE ALFORD                  ROSE NICHOLS                   BRAD MARTIN                _
2221 24 JO ANNE CARPENTER              PATSY HUNTER                   TOM ROBERTSON                  MELVIN WOLFE JR.           _
2231    PEGGY GRIFFIN                  JANICE ALFORD                  SHERYL HARRIS                  MELVIN WOLFE JR.           _
2251    VICKIE EZZELL                  JUDY MEDLIN                    THERESA BERRIO                 BRAD MARTIN                _
2261    BRENDA VIVERETTE               JUDY MEDLIN                    JACKIE QUARLES                 BRAD MARTIN                _
2271    PEGGY GRIFFIN                  JANICE ALFORD                  BRENDA DAUGHTRY                MELVIN WOLFE JR.           _
2281    VICKIE EZZELL                  JUDY MEDLIN                    GWEN SMITH                     BRAD MARTIN                _
2291    MARGIE TURNER                  JANICE ALFORD                  DAVID NOSSE                    MARK ANDREWS               _
2301    MARIE TYSON                    JUDY MEDLIN                    CURTIS SONDNEY                 BRAD MARTIN                _
2321    JO ANNE CARPENTER              PATSY HUNTER                   RICO DILLARD                   MELVIN WOLFE JR.           _
2331    JO ANNE CARPENTER              PATSY HUNTER                   FRANK PLUM                     MELVIN WOLFE JR.           _
2341    MARGIE TURNER                  JANICE ALFORD                  ALISHA PATSEL                  MARK ANDREWS               _
2371    MARGIE TURNER                  JANICE ALFORD                  PATSY BOWYER                   MARK ANDREWS               _
2381    MARY LEE DENTON                JUDY MEDLIN                    SANDRA THOMAS                  MELVIN WOLFE JR.           _
2391    JO ANNE CARPENTER              LYNETTE HYDE                   DONALD MARABLE                 JOHN E DEAL                _
2401    MARY LEE DENTON                JUDY MEDLIN                    GLENN ROBINSON                 PERRY CRAIG                _
2411    JO ANNE CARPENTER              LYNETTE HYDE                   LEE FRITH                      JOHN E DEAL                _
2431 24 JEAN MANN                      JANICE ALFORD                  TERRY HENRY                    BRAD MARTIN                _
2441    CINDY MAY                      LYNETTE HYDE                   PATRICIA THOMAS                MELVIN WOLFE JR.           _
2451    JEAN MANN                      JANICE ALFORD                  JULIA BOWER                    MARK ANDREWS               _
2471    KIM WALL                       PATSY HUNTER                   THELMA LUTZ                    JOHN E DEAL                _
2481    PEGGY GRIFFIN                  JANICE ALFORD                  JOHN COUNTRYMAN                MELVIN WOLFE JR.           _
2501    PEGGY GRIFFIN                  JUDY MEDLIN                    DANNY WILLIAMS                 BRAD MARTIN                _
2511    CINDY MAY                      LYNETTE HYDE                   EMMANUEL AKPOBIYERI            JOHN E DEAL                _
2521    KIM WALL                       KIM JONES                      MIKE NICHOLS                   RANDALL CORBIN             _
2531    MARY LEE DENTON                JUDY MEDLIN                    EVA ARTIS                      BRAD MARTIN                _
2541    CINDY MAY                      LYNETTE HYDE                   PAT FITZGERALD                 MELVIN WOLFE JR.           _
2551    PEGGY GRIFFIN                  JANICE ALFORD                                                 MELVIN WOLFE JR.           _
2561    DEBORAH SULLIVAN               LYNETTE HYDE                   BONNIE KRANICK                 JOHN E DEAL                _
2571    BRENDA WARREN                  JUDY MEDLIN                    MAGGIE WILSON                  BRAD MARTIN                _
2581    JEAN MANN                      PATSY HUNTER                   CHARLOTTE TERRY                MELVIN WOLFE JR.           _
2591    MARGIE TURNER                  JANICE ALFORD                  LOUANNE SEMONES                MARK ANDREWS               _
2611 24 MARY LEE DENTON                JUDY MEDLIN                    VERA SMITH                     MELVIN WOLFE JR.           _
2621    CINDY MAY                      LYNETTE HYDE                   GAIL YOUNG                     MELVIN WOLFE JR.           _
2631    VICKIE EZZELL                  JUDY MEDLIN                    DAWN MULLINS                   BRAD MARTIN                _
2641 24 VICKIE EZZELL                  KIM JONES                      WILMA POWERS                   DAVID TEW                  _
2661    JEAN MANN                      JANICE ALFORD                  BARBARA MILES                  MARK ANDREWS               _
2671    CINDY MAY                      LYNETTE HYDE                                                  MELVIN WOLFE JR.           _
2691    VICKIE EZZELL                  KIM JONES                      MELISSA BOSTIC                 DAVID TEW                  _
2701 24 MARGIE TURNER                  JANICE ALFORD                  ED RUBEIZ                      MARK ANDREWS               _
2711 24 VICKIE EZZELL                  JANICE ALFORD                  RICHARD KRAUSE                 MARK ANDREWS               _
2721    PATTY DAVIS                    KIM JONES                      DONNA WILLIAMS                 DAVID TEW                  _
2731 24 WENDY ROSE                     JUDY MEDLIN                    GINA PRICE                     BRAD MARTIN                _
2741    PATTY DAVIS                    KIM JONES                      SHERRY LOONEY                  DAVID TEW                  _
2751    DEBORAH SULLIVAN               PATSY HUNTER                   SHANE ARDOIN                   JOHN E DEAL                _
2761    PEGGY GRIFFIN                  JANICE ALFORD                  SHEILDS ADKINS                 MARK ANDREWS               _
2771    JEAN MANN                      JANICE ALFORD                  JO ANN KOWALSKI                BRAD MARTIN                _
2781    VICKIE EZZELL                  JUDY MEDLIN                    SHELLEY CASON                  BRAD MARTIN                _
2791    CINDY MAY                      LYNETTE HYDE                   NICK ABOUL-HOSN                MELVIN WOLFE JR.           _
2801    PATTY DAVIS                    KIM JONES                      PEARL MARSHALL                 DAVID TEW                  _
2803    BRENDA WALL                    JANICE ALFORD                  LEWIS PRITCHETT                BRAD MARTIN                _
2804 24 JEAN MANN                      JANICE ALFORD                  JUDY DEWEESE                   MARK ANDREWS               _
2805 24 JO ANNE CARPENTER              PATSY HUNTER                   CHUCK AYERS                    JOHN E DEAL                _
2806 24 JEAN MANN                      JANICE ALFORD                  LISA TRENT                     MARK ANDREWS               _
2807    LISA GAY                       PATSY HUNTER                   TOM FARLEY                     JOHN E DEAL                _
2808    CINDY MAY                      LYNETTE HYDE                   SANDRA LANE                    MELVIN WOLFE JR.           _
2809    VICKIE EZZELL                  JANICE ALFORD                  DEBBIE MARTIN                  MARK ANDREWS               _
2810    DEBORAH SULLIVAN               PATSY HUNTER                   SCOTT MORRIS                   PERRY CRAIG                _
2811    JEAN MANN                      JANICE ALFORD                  LISA MOORE                     MARK ANDREWS               _
2812 24 DEBORAH SULLIVAN               PATSY HUNTER                   BARBARA OSBORNE                PERRY CRAIG                _
2813    PEGGY GRIFFIN                  JANICE ALFORD                  BARBARA PADGETT                MELVIN WOLFE JR.           _
2814    DEBORAH SULLIVAN               JUDY MEDLIN                    LAURIE YOUNGER                 PERRY CRAIG                _
2815    KIM WALL                       PATSY HUNTER                   MAURICE BARTLEY                JOHN E DEAL                _
2816    CINDY MAY                      PATSY HUNTER                   DEBBIE RAINEY                  MELVIN WOLFE JR.           _
2817 24 JEAN MANN                      JUDY MEDLIN                    BONNIE BLANSETT                MELVIN WOLFE JR.           _
2818    VICKIE EZZELL                  JUDY MEDLIN                    JOE BAILY                      BRAD MARTIN                _
2819    BRENDA WALL                    JANICE ALFORD                  LISA MASON                     BRAD MARTIN                _
2820    MARGIE TURNER                  JANICE ALFORD                  STEVE NOSSE                    MARK ANDREWS               _
2821    MARY LEE DENTON                JUDY MEDLIN                    JUDY CALDWELL                  MARK ANDREWS               _
2822    MARY LEE DENTON                JUDY MEDLIN                    JOHNNY FLEMING                 MELVIN WOLFE JR.           _
2823    VICKIE EZZELL                  JUDY MEDLIN                    MARK HENRY                     BRAD MARTIN                _
2824    JEAN MANN                      PATSY HUNTER                   DINAH ROBBINS                  MELVIN WOLFE JR.           _
2825    MARGIE TURNER                  JANICE ALFORD                  ROBIN FRANCISCO                MARK ANDREWS               _
2826    JEAN MANN                      KIM JONES                      ARLENE HUTCHINSON              DAVID TEW                  _
2827    LISA GAY                       LYNETTE HYDE                   CAROLYN FORTUNE                JOHN E DEAL                _
2829    BRENDA WALL                    JUDY MEDLIN                    BRANT SKIDMORE                 BRAD MARTIN                _
2830    JEAN MANN                      PATSY HUNTER                   MARY PRIMOUS                   MELVIN WOLFE JR.           _
2832    DEBORAH SULLIVAN               PATSY HUNTER                   MARY JEFFERSON                 PERRY CRAIG                _
2833    PANSEY RACKLEY                 PATSY HUNTER                   TELESA DAVIS                   JOHN E DEAL                _
2834 24 MARGIE TURNER                  JANICE ALFORD                  DENNIS TAN                     MARK ANDREWS               _
2835    DEBORAH SULLIVAN               PATSY HUNTER                   BOBBY BRYANT                   PERRY CRAIG                _
2836    JO ANNE CARPENTER              LYNETTE HYDE                   DOUG POWERS                    MELVIN WOLFE JR.           _
2837    BRENDA WALL                    JANICE ALFORD                  TAMMY PEARSON                  BRAD MARTIN                _
2838    BRENDA WALL                    JANICE ALFORD                  DONALD TRUSTY                  BRAD MARTIN                _
2839    CINDY MAY                      LYNETTE HYDE                   GERRIE WOLFE                   MELVIN WOLFE JR.           _
2840    MARY LEE DENTON                JUDY MEDLIN                    CORA STATON                    BRAD MARTIN                _
2842    MARGIE TURNER                  JANICE ALFORD                  TRACEY HALL                    MARK ANDREWS               _
2843    KIM WALL                       PATSY HUNTER                   RICHARD HANBURY                JOHN E DEAL                _
2844    PANSEY RACKLEY                 PATSY HUNTER                   DONALD COX                     JOHN E DEAL                _
2845 24 CINDY MAY                      JUDY MEDLIN                    DORIAN SUTTON                  BRAD MARTIN                _
2846    JEAN MANN                      PATSY HUNTER                   BARBARA COPELAND               MELVIN WOLFE JR.           _
2847    JO ANNE CARPENTER              LYNETTE HYDE                   SCOTT STARK                    MELVIN WOLFE JR.           _
2848    BRENDA WALL                    JANICE ALFORD                  JODY ADAMS                     BRAD MARTIN                _
2849 24 PATTY DAVIS                    KIM JONES                      EARL CASH                      DAVID TEW                  _
2850    JEAN MANN                      JANICE ALFORD                  WALTER HARRIMAN                MARK ANDREWS               _
2851    KIM WALL                       PATSY HUNTER                   SUE SMITH                      JOHN E DEAL                _
2861    KIM WALL                       PATSY HUNTER                   JUDY TAYLOR                    JOHN E DEAL                _
2871    PEGGY GRIFFIN                  JANICE ALFORD                  KIM GILPIN                     MARK ANDREWS               _
2891    PANSEY RACKLEY                 PATSY HUNTER                   SHANNON BRANCH                 JOHN E DEAL                _
2902    BRENDA WALL                    KIM JONES                      DEAN KELLEY                    DAVID TEW                  _
2903 24 VICKIE EZZELL                  KIM JONES                      TONY HART                      DAVID TEW                  _
2904    MARGIE TURNER                  JANICE ALFORD                  GEORGE ADAMS                   MARK ANDREWS               _
2905    KIM WALL                       KIM JONES                      SARAH LINKOUS                  MARK ANDREWS               _
2906    VICKIE EZZELL                  KIM JONES                      JUNE WILLIAMS                  MARK ANDREWS               _
2907    PATTY DAVIS                    KIM JONES                      TERESA HUGHES                  DAVID TEW                  _
2908    MARY LEE DENTON                JUDY MEDLIN                    NANETTE DILLMAN                BRAD MARTIN                _
2909    BRENDA WALL                    JANICE ALFORD                  BONNIE RICKS                   BRAD MARTIN                _
2910    DEBORAH SULLIVAN               LYNETTE HYDE                   BARBARA MERRILL                JOHN E DEAL                _
2911    PEGGY GRIFFIN                  JANICE ALFORD                  NALE FALLS                     MARK ANDREWS               _
2912 24 PEGGY GRIFFIN                  JANICE ALFORD                  VINCENT JONES                  MARK ANDREWS               _
2913    PATTY DAVIS                    JUDY MEDLIN                    MISSY VINALON                  BRAD MARTIN                _
2914    VICKIE EZZELL                  JANICE ALFORD                  SANDRA BARLOW                  MARK ANDREWS               _
2915    MARGIE TURNER                  JANICE ALFORD                  LYNN MEADOWS                   MARK ANDREWS               _
2916    VICKIE EZZELL                  JUDY MEDLIN                    STUART JOLLEY                  BRAD MARTIN                _
2917    PEGGY GRIFFIN                  JANICE ALFORD                  MARILYN FERRELL                MARK ANDREWS               _
2918    KIM WALL                       PATSY HUNTER                   MICHAEL HOWDYSHELL             JOHN E DEAL                _
2919    MARGIE TURNER                  JANICE ALFORD                  CHARLES STOKES                 MARK ANDREWS               _
2920    DEBORAH SULLIVAN               LYNETTE HYDE                   JANICE CLORE                   JOHN E DEAL                _
2921    JEAN MANN                      JANICE ALFORD                  SANDY PRICE                    MARK ANDREWS               _
2925    LISA GAY                       PATSY HUNTER                   WANDA PARNELL                  JOHN E DEAL                _
2926    JO ANNE CARPENTER              LYNETTE HYDE                   TODD BOLTON                    JOHN E DEAL                _
2927 24 LISA GAY                       PATSY HUNTER                   JULES FISHER                   JOHN E DEAL                _
2928    PEGGY GRIFFIN                  JANICE ALFORD                  DOROTHY STRATTON               MARK ANDREWS               _
2929    KIM WALL                       KIM JONES                      TRACY CROSIER                  MARK ANDREWS               _
2930    PANSEY RACKLEY                 PATSY HUNTER                   ELISABETH WILTSHIRE            JOHN E DEAL                _
2931    PANSEY RACKLEY                 PATSY HUNTER                   DONNA PITTS                    JOHN E DEAL                _
2933    JEAN MANN                      KIM JONES                      RANDY HONAKER                  DAVID TEW                  _
2934    LISA GAY                       JUDY MEDLIN                    DIANE LACEY                    BRAD MARTIN                _
2935    PEGGY GRIFFIN                  JANICE ALFORD                  A. J. LACKLAND                 MELVIN WOLFE JR.           _
2936    PANSEY RACKLEY                 PATSY HUNTER                                                  JOHN E DEAL                _
2937    PATTY DAVIS                    KIM JONES                      CLYDE CORNETT                  DAVID TEW                  _
2938    PATTY DAVIS                    KIM JONES                      DIANNA HALL                    DAVID TEW                  _
2939    CINDY MAY                      LYNETTE HYDE                   BRENDA FARMER                  MELVIN WOLFE JR.           _
2940    LISA GAY                       PATSY HUNTER                   KEN RIVERS                     JOHN E DEAL                _
2941    JO ANNE CARPENTER              LYNETTE HYDE                   MICHAEL BROWN                  JOHN E DEAL                _
2942 24 LISA GAY                       LYNETTE HYDE                   TOOKY HITT                     JOHN E DEAL                _
2943    KIM WALL                       KIM JONES                      RONNIE RODRIGUE                MARK ANDREWS               _
2944 24 DEBORAH SULLIVAN               PATSY HUNTER                   CYNTHIA ROBERSON               PERRY CRAIG                _
2945    MARGIE TURNER                  JUDY MEDLIN                    MIKE BARTLESON                 BRAD MARTIN                _
2946    MARY LEE DENTON                JUDY MEDLIN                    CAROL ALLEY                    PERRY CRAIG                _
2947    JEAN MANN                      PATSY HUNTER                   SAMANTHA CHENAULT              MELVIN WOLFE JR.           _
2948    PANSEY RACKLEY                 PATSY HUNTER                   ALBERT BESHADA                 JOHN E DEAL                _
2949    PATTY DAVIS                    KIM JONES                      LOUIS BOLYARD                  DAVID TEW                  _
2952    VICKIE EZZELL                  JANICE ALFORD                  TAMMY NICKELL                  MARK ANDREWS               _
2953    PEGGY GRIFFIN                  JANICE ALFORD                  LOIS NOEL                      MARK ANDREWS               _
2954    MARY LEE DENTON                JUDY MEDLIN                    SHARRON MAPP                   BRAD MARTIN                _
2955    MARY LEE DENTON                JUDY MEDLIN                    BARBARA GRAVLEY                PERRY CRAIG                _
2956    DEBBIE DICKENS                 JUDY MEDLIN                    VICKIE MOORE                   BRAD MARTIN                _
2957    CINDY MAY                      LYNETTE HYDE                   KAREN TUCKER                   MELVIN WOLFE JR.           _
2958    ANN CONE                       JUDY MEDLIN                    JOE KENT                       MELVIN WOLFE JR.           _
2959    PANSEY RACKLEY                 PATSY HUNTER                   LETHA RUSH                     JOHN E DEAL                _
2960    PANSEY RACKLEY                 PATSY HUNTER                   CAROL SCHAEFFER                JOHN E DEAL                _
2961    JEAN MANN                      PATSY HUNTER                   KATRINA ROBINSON               MELVIN WOLFE JR.           _
2962    VICKIE EZZELL                  JUDY MEDLIN                                                   BRAD MARTIN                _
2963    PANSEY RACKLEY                 PATSY HUNTER                   JEANETTE SMITH                 JOHN E DEAL                _
2964    PANSEY RACKELY                 JUDY MEDLIN                    VERNETTA THURSTON              BRAD MARTIN                _
2966    LISA GAY                       LYNETTE HYDE                   CHERIE HITT                    JOHN E DEAL                _
2967    MARGIE TURNER                  LYNETTE HYDE                   MATT THOMAS                    JOHN E DEAL                _
2968    JO ANNE CARPENTER              PATSY HUNTER                   JEFF COX                       MELVIN WOLFE JR.           _
2969    MARIE TYSON                    JANICE ALFORD                  PHYLLIS RHODES                 MARK ANDREWS               _
2971 24 CINDY MAY                      PATSY HUNTER                   ESTHER DARBYSHIRE              MELVIN WOLFE JR.           _
2972    PEGGY GRIFFIN                  JANICE ALFORD                  BARRY MUTISPAUGH               MARK ANDREWS               _
2973    PEGGY GRIFFIN                  JANICE ALFORD                  MYRTLE MANDEVILLE              MARK ANDREWS               _
2974    DEBORAH SULLIVAN               JUDY MEDLIN                    PEGGY CASON                    BRAD MARTIN                _
2975    MARY LEE DENTON                JUDY MEDLIN                    ROGER KENNEDY                  BRAD MARTIN                _
2976    JO ANNE CARPENTER              LYNETTE HYDE                                                  JOHN E DEAL                _
2977    JO ANNE CARPENTER              LYNETTE HYDE                   SUN HAYWOOD                    JOHN E DEAL                _
2978    MARY LEE DENTON                JUDY MEDLIN                    JIM SULLIVAN                   PERRY CRAIG                _
2979    MARGIE TURNER                  LYNETTE HYDE                   CAREY AYERS                    JOHN E DEAL                _
2980    JEAN MANN                      PATSY HUNTER                   ROLAN STEVENSON                MELVIN WOLFE JR.           _
2981    PATTY DAVIS                    KIM JONES                      RICK KEESSEE                   DAVID TEW                  _
2982    MARY LEE DENTON                JUDY MEDLIN                    RONDA JOYNER                   MELVIN WOLFE JR.           _
2983    MARY LEE DENTON                JUDY MEDLIN                    RHONDA MARTIN                  PERRY CRAIG                _
2984    JEAN MANN                      PATSY HUNTER                   LORETTA BERLIN                 MELVIN WOLFE JR.           _
2985    KIM WALL                       PATSY HUNTER                   JUDY TAYLOR                    JOHN E DEAL                _
2986    CINDY MAY                      LYNETTE HYDE                   MARC COONLEY                   MELVIN WOLFE JR.           _
2987    DEBRA BENSON                   JUDY MEDLIN                    PAT JONES                      BRAD MARTIN                _
2988    JOANNE CARPENTER               LYNETTE HYDE                   PEGGY LAWTHER                  JOHN E DEAL                _
2989    KIM WALL                       KIM JONES                      CYNTHIA ROLLISON               RANDALL CORBIN             _
2990    JO ANNE CARPENTER              JUDY MEDLIN                    LISA LINDEMAN                  BRAD MARTIN                _
2991    JOANNE CARPENTER               LYNETTE HYDE                   SCOTT STARK                    MELVIN WOLFE JR.           _
2992    JEAN MANN                      JANICE ALFORD                  JOHN DEWEESE                   MARK ANDREWS               _
2993    BRENDA WALL                    JANICE ALFORD                  KIMBERLY HOOKS                 BRAD MARTIN                _
3011    BRENDA VIVERETTE               KIM JONES                      SARA TYLER                     J.P. BERGIN                _
3021 24 BRENDA VIVERETTE               JANICE ALFORD                  SUZANNE BARFIELD               MARK BARBEE                _
3031 24 BRENDA VIVERETTE               KIM JONES                      PEGGY LEGETTE                  J.P. BERGIN                _
3041    BRENDA VIVERETTE               KIM JONES                      SHERYL MILES                   J.P. BERGIN                _
3051    BRENDA VIVERETTE               JANICE ALFORD                  DELORIS SMALLS                 MARK BARBEE                _
3061    BRENDA VIVERETTE               JANICE ALFORD                  EDITH EVEILLARD                MARK BARBEE                _
3071 24 BRENDA VIVERETTE               JANICE ALFORD                  LYNETTE DAVIS                  MARK BARBEE                _
3081    BRENDA VIVERETTE               KIM JONES                      MARY HANNA                     J.P. BERGIN                _
3091    BRENDA VIVERETTE               JANICE ALFORD                  DEBBY DECOSTA                  MARK BARBEE                _
3092    BRENDA VIVERETTE               JANICE ALFORD                  LORRAINE ROSIER                MARK BARBEE                _
3093    BRENDA VIVERETTE               KIM JONES                      KEN WOOD                       J.P. BERGIN                _
4001    ANN CONE                       JUDY MEDLIN                    STEVE DENTON                   RANDY VAUGHN               _
4003    ANN CONE                       JUDY MEDLIN                    LISA HOLLAND                   RANDY VAUGHN               _
4004    ANN CONE                       JUDY MEDLIN                    JEANNA SPENCER                 RANDY VAUGHN               _
4005    ANN CONE                       JUDY MEDLIN                    RICHIE HASTINGS                RANDY VAUGHN               _
4201    ANN CONE                       JUDY MEDLIN                    GLENDA HOPKINS                 RANDY VAUGHN               _
4202 24 ANN CONE                       JUDY MEDLIN                    ROBERT BRATTON                 RANDY VAUGHN               _
4203    ANN CONE                       JUDY MEDLIN                    EMMA SWAIN                     RANDY VAUGHN               _
4204    ANN CONE                       JUDY MEDLIN                                                   RANDY VAUGHN               _
4205    ANN CONE                       JUDY MEDLIN                    MCLEOD BANKS                   RANDY VAUGHN               _
4206 24 ANN CONE                       JUDY MEDLIN                    JEFF ROBERTSON                 RANDY VAUGHN               _
4207    ANN CONE                       JUDY MEDLIN                    DELOIS BOBO                    RANDY VAUGHN               _
4208    ANN CONE                       JUDY MEDLIN                    RUBY TOSH                      RANDY VAUGHN               _
4209    ANN CONE                       JUDY MEDLIN                    MIKE CURTWRIGHT                RANDY VAUGHN               _
4210    ANN CONE                       JUDY MEDLIN                    PATRICIA FLAKE                 RANDY VAUGHN               _
4211    ANN CONE                       JUDY MEDLIN                    GENOA JAMES                    RANDY VAUGHN               _
4214    ANN CONE                       JUDY MEDLIN                    ANGELA HOPPS                   RANDY VAUGHN               _
4215    ANN CONE                       JUDY MEDLIN                    GALEN AVERY                    RANDY VAUGHN               _
4217    ANN CONE                       JUDY MEDLIN                    JANICE KING                    RANDY VAUGHN               _
4401    ANN CONE                       JUDY MEDLIN                    PAULA TAYLOR                   RANDY VAUGHN               _
4403    ANN CONE                       JUDY MEDLIN                    CHRIS POLLARD                  RANDY VAUGHN               _
4404    ANN CONE                       JUDY MEDLIN                    MARK TALLEY                    RANDY VAUGHN               _
4405    ANN CONE                       JUDY MEDLIN                    KIM FERGUSON                   RANDY VAUGHN               _
4407    ANN CONE                       JUDY MEDLIN                    TONY HOMEWOOD                  RANDY VAUGHN               _
5001    PATTY DAVIS                    KIM JONES                      FLOSSIE MIDDLETON              DAVID TEW                  _
5002 24 BRENDA WALL                    KIM JONES                      CARRIE FAIRCHILD               DAVID TEW                  _
5003    BRENDA WALL                    KIM JONES                      SANDRA SABO                    DAVID TEW                  _
5004    BRENDA WALL                    KIM JONES                      BETTY TAULBEE                  DAVID TEW                  _
5006    PATTY DAVIS                    KIM JONES                      PAULA SAYLOR                   DAVID TEW                  _
5007    PATTY DAVIS                    KIM JONES                      RUTH NEACE                     DAVID TEW                  _
5008    PATTY DAVIS                    KIM JONES                      JAMES GREEAR                   DAVID TEW                  _
5009    BRENDA WALL                    KIM JONES                      DANNY STAMPER                  DAVID TEW                  _
5010    PATTY DAVIS                    KIM JONES                      MICHELLE DONELSON              DAVID TEW                  _
5011    BRENDA WALL                    KIM JONES                      CHARLENE GODSEY                DAVID TEW                  _
5012    BRENDA WALL                    KIM JONES                      DAVID COWETT                   DAVID TEW                  _
5013    PATTY DAVIS                    KIM JONES                      SHERRY BYRD                    DAVID TEW                  _
5014    PATTY DAVIS                    KIM JONES                      GWEN RAY                       DAVID TEW                  _
5015    BRENDA WALL                    KIM JONES                      SHELIA HAYES                   DAVID TEW                  _
5016    PATTY DAVIS                    KIM JONES                      MELISSA ADDINGTON              DAVID TEW                  _
